\relax 
\providecommand*\new@tpo@label[2]{}
\abx@aux@refcontext{nty/global//global/global}
\providecommand\tcolorbox@label[2]{}
\@writefile{toc}{\boolfalse {citerequest}\boolfalse {citetracker}\boolfalse {pagetracker}\boolfalse {backtracker}\relax }
\@writefile{lof}{\boolfalse {citerequest}\boolfalse {citetracker}\boolfalse {pagetracker}\boolfalse {backtracker}\relax }
\@writefile{lot}{\boolfalse {citerequest}\boolfalse {citetracker}\boolfalse {pagetracker}\boolfalse {backtracker}\relax }
\babel@aux{british}{}
\@writefile{toc}{\contentsline {chapter}{Preface}{v}}
\@writefile{toc}{\contentsline {chapter}{Introduction: The method of mathematical induction}{1}}
\abx@aux@cite{shklyarsky1979}
\abx@aux@segm{0}{0}{shklyarsky1979}
\newlabel{eq-01}{{1}{3}}
\newlabel{eq-02}{{2}{5}}
\newlabel{eq-03}{{3}{6}}
\newlabel{eq-04}{{4}{7}}
\newlabel{eq-05}{{5}{7}}
\@writefile{toc}{\contentsline {chapter}{\numberline {1}Calculation by Induction}{9}}
\@writefile{lof}{\addvspace {10\p@ }}
\@writefile{lot}{\addvspace {10\p@ }}
\@writefile{toc}{\contentsline {chapter}{\numberline {2}Proof by Induction}{15}}
\@writefile{lof}{\addvspace {10\p@ }}
\@writefile{lot}{\addvspace {10\p@ }}
\@writefile{toc}{\contentsline {chapter}{\numberline {3}Construction by Induction}{45}}
\@writefile{lof}{\addvspace {10\p@ }}
\@writefile{lot}{\addvspace {10\p@ }}
\@writefile{toc}{\contentsline {chapter}{\numberline {4}Finding Loci by Induction}{53}}
\@writefile{lof}{\addvspace {10\p@ }}
\@writefile{lot}{\addvspace {10\p@ }}
\@writefile{toc}{\contentsline {chapter}{\numberline {5}Definition by Induction}{59}}
\@writefile{lof}{\addvspace {10\p@ }}
\@writefile{lot}{\addvspace {10\p@ }}
\@writefile{toc}{\contentsline {chapter}{\numberline {6}Induction on the Number of Dimensions}{71}}
\@writefile{lof}{\addvspace {10\p@ }}
\@writefile{lot}{\addvspace {10\p@ }}
\@writefile{toc}{\contentsline {chapter}{Bibliography}{97}}
\abx@aux@refcontextdefaultsdone
\abx@aux@defaultrefcontext{0}{shklyarsky1979}{nty/global//global/global}
\global\@namedef{scr@dte@chapter@lastmaxnumwidth}{9.83302pt}
