[0] Config.pm:302> INFO - This is Biber 2.11
[0] Config.pm:305> INFO - Logfile is 'lml-induction-in-geometry.blg'
[43] biber-darwin:313> INFO - === Tue Feb 19, 2019, 12:35:28
[68] Biber.pm:371> INFO - Reading 'lml-induction-in-geometry.bcf'
[175] Biber.pm:857> INFO - Found 1 citekeys in bib section 0
[191] Biber.pm:3976> INFO - Processing section 0
[203] Biber.pm:4136> INFO - Looking for bibtex format file 'induction.bib' for section 0
[205] bibtex.pm:1500> INFO - LaTeX decoding ...
[213] bibtex.pm:1316> INFO - Found BibTeX data source 'induction.bib'
[240] UCollate.pm:68> INFO - Overriding locale 'en-GB' defaults 'variable = shifted' with 'variable = non-ignorable'
[240] UCollate.pm:68> INFO - Overriding locale 'en-GB' defaults 'normalization = NFD' with 'normalization = prenormalized'
[240] Biber.pm:3804> INFO - Sorting list 'nty/global//global/global' of type 'entry' with template 'nty' and locale 'en-GB'
[240] Biber.pm:3810> INFO - No sort tailoring available for locale 'en-GB'
[242] bbl.pm:617> INFO - Writing 'lml-induction-in-geometry.bbl' with encoding 'UTF-8'
[243] bbl.pm:720> INFO - Output to lml-induction-in-geometry.bbl
