% $ biblatex auxiliary file $
% $ biblatex bbl format version 2.9 $
% Do not modify the above lines!
%
% This is an auxiliary file used by the 'biblatex' package.
% This file may safely be deleted. It will be recreated by
% biber as required.
%
\begingroup
\makeatletter
\@ifundefined{ver@biblatex.sty}
  {\@latex@error
     {Missing 'biblatex' package}
     {The bibliography requires the 'biblatex' package.}
      \aftergroup\endinput}
  {}
\endgroup


\refsection{0}
  \datalist[entry]{nty/global//global/global}
    \entry{shklyarsky1979}{book}{}
      \name{author}{3}{}{%
        {{hash=5b09a712ac2402a76a87262941366881}{%
           family={Shklyarsky},
           familyi={S\bibinitperiod},
           given={D.\bibnamedelimi O.},
           giveni={D\bibinitperiod\bibinitdelim O\bibinitperiod}}}%
        {{hash=e61fe7546dffce366b96038907d39d33}{%
           family={Chentsov},
           familyi={C\bibinitperiod},
           given={N.\bibnamedelimi N.},
           giveni={N\bibinitperiod\bibinitdelim N\bibinitperiod}}}%
        {{hash=321c4bb0dc2899e3323904b0c8474a23}{%
           family={Yaglom},
           familyi={Y\bibinitperiod},
           given={l.\bibnamedelimi M.},
           giveni={l\bibinitperiod\bibinitdelim M\bibinitperiod}}}%
      }
      \list{location}{1}{%
        {Moscow}%
      }
      \list{publisher}{1}{%
        {Mir Publishers}%
      }
      \strng{namehash}{46759ecf42e14d813687a09894f2f4c6}
      \strng{fullhash}{46759ecf42e14d813687a09894f2f4c6}
      \strng{bibnamehash}{46759ecf42e14d813687a09894f2f4c6}
      \strng{authorbibnamehash}{46759ecf42e14d813687a09894f2f4c6}
      \strng{authornamehash}{46759ecf42e14d813687a09894f2f4c6}
      \strng{authorfullhash}{46759ecf42e14d813687a09894f2f4c6}
      \field{sortinit}{S}
      \field{sortinithash}{322b1d5276f2f6c1bccdcd15920dbee6}
      \field{labelnamesource}{author}
      \field{labeltitlesource}{title}
      \field{title}{Selected Problems and Theorems in Elementary Mathematics}
      \field{year}{1979}
    \endentry
  \enddatalist
\endrefsection
\endinput

